0
25 119
XXXXXXXXXXXXXXXXXXXXXXXX
X......................X
X......................X
X......................X
X......................E
X......................X
X......................X
X......................X
X......................X
X......................X
X......................X
X......................X
X......................X
X......................X
X......................X
XXXXXXXXXXXXXXXXXXXXXXXX